# t	d(t)
-2.000000000000000000e+00 8.295017784299137942e-01
-1.995995995995996086e+00 6.999389503916522148e-01
-1.991991991991991950e+00 9.282718619601580956e-01
-1.987987987987988037e+00 1.207527463376000115e-01
-1.983983983983983901e+00 8.014855112554826189e-01
-1.979979979979979987e+00 -4.423932786276768558e-01
-1.975975975975976073e+00 -2.708880034837184980e-01
-1.971971971971971938e+00 -1.242606933630105548e+00
-1.967967967967968024e+00 1.591838146866121573e+00
-1.963963963963963888e+00 -3.337703370807774128e-01
-1.959959959959959974e+00 7.043088303038459452e-01
-1.955955955955956060e+00 2.407182170674451172e+00
-1.951951951951951925e+00 1.014102274445991547e+00
-1.947947947947948011e+00 1.397578761814702419e+00
-1.943943943943943875e+00 9.499501560780604370e-01
-1.939939939939939961e+00 -8.518364028344906913e-01
-1.935935935935936048e+00 -5.815494399225663580e-01
-1.931931931931931912e+00 1.766659729952682278e+00
-1.927927927927927998e+00 5.744611575109352941e-01
-1.923923923923923862e+00 3.679010392858765854e-01
-1.919919919919919948e+00 -1.647386039407433000e-01
-1.915915915915916035e+00 -1.773423375561548720e+00
-1.911911911911911899e+00 1.006164234846976813e+00
-1.907907907907907985e+00 -1.103735134430081422e+00
-1.903903903903903849e+00 -1.020193932706542572e+00
-1.899899899899899935e+00 -9.418770455195173419e-01
-1.895895895895895800e+00 1.573591356229720351e+00
-1.891891891891891886e+00 -1.011301185885039366e+00
-1.887887887887887972e+00 1.060410573793707512e+00
-1.883883883883883836e+00 -3.164603027726355794e-02
-1.879879879879879923e+00 6.312121247506262689e-01
-1.875875875875875787e+00 1.152596941269121045e+00
-1.871871871871871873e+00 -3.477650216574693642e-01
-1.867867867867867959e+00 2.894329735760992617e-01
-1.863863863863863823e+00 2.959880142690008986e-01
-1.859859859859859910e+00 -8.834572773568680759e-01
-1.855855855855855774e+00 3.063708203585246981e-01
-1.851851851851851860e+00 -4.588213654296094401e-01
-1.847847847847847724e+00 -8.930242740127299905e-01
-1.843843843843843811e+00 -7.838045112262216341e-01
-1.839839839839839897e+00 7.210322885512003843e-01
-1.835835835835835761e+00 5.311638611384557063e-01
-1.831831831831831847e+00 3.206392315929199599e-01
-1.827827827827827711e+00 -1.270583690307395541e-01
-1.823823823823823798e+00 7.002523635386883605e-01
-1.819819819819819884e+00 1.476957900369199939e+00
-1.815815815815815748e+00 1.105272631227965041e+00
-1.811811811811811834e+00 2.090024348489986361e-01
-1.807807807807807698e+00 7.066081763708280672e-01
-1.803803803803803785e+00 1.278947354032571093e+00
-1.799799799799799871e+00 2.375831030663029808e-01
-1.795795795795795735e+00 -1.115653213092401952e+00
-1.791791791791791821e+00 7.550148679791466311e-01
-1.787787787787787686e+00 9.417515315908867590e-01
-1.783783783783783772e+00 -3.534111396883419243e-01
-1.779779779779779858e+00 -6.358236451263054034e-01
-1.775775775775775722e+00 -1.517739494502678421e-01
-1.771771771771771808e+00 -4.268259994452123229e-01
-1.767767767767767673e+00 4.738670037985920347e-01
-1.763763763763763759e+00 2.626148236562829696e-01
-1.759759759759759845e+00 1.004941603195675714e+00
-1.755755755755755709e+00 4.719102682540002314e-01
-1.751751751751751796e+00 -1.265076702555972821e-01
-1.747747747747747660e+00 -1.227347578671468931e+00
-1.743743743743743746e+00 1.461683466337749149e+00
-1.739739739739739832e+00 1.370293818641942218e+00
-1.735735735735735696e+00 -1.188602961621040954e+00
-1.731731731731731783e+00 -7.409001084568087592e-01
-1.727727727727727647e+00 -1.772816922280612550e-01
-1.723723723723723733e+00 -1.633548458650391499e-01
-1.719719719719719819e+00 1.094377990674916701e+00
-1.715715715715715683e+00 3.696746910793269891e-01
-1.711711711711711770e+00 -1.539443592349000633e+00
-1.707707707707707634e+00 1.523604299474395019e+00
-1.703703703703703720e+00 4.168088487698285993e-01
-1.699699699699699806e+00 -4.827053960345815131e-01
-1.695695695695695671e+00 -3.329317936373917819e-01
-1.691691691691691757e+00 1.853162507915105117e-01
-1.687687687687687621e+00 3.969462097157723801e-01
-1.683683683683683707e+00 -1.754747774775848868e+00
-1.679679679679679793e+00 -9.028845294050286130e-01
-1.675675675675675658e+00 1.073787506087205967e+00
-1.671671671671671744e+00 -3.964169976033100617e-01
-1.667667667667667608e+00 -1.294520223972985162e+00
-1.663663663663663694e+00 -7.922817784910876071e-01
-1.659659659659659781e+00 8.048604270807808991e-02
-1.655655655655655645e+00 -1.564432765759429023e+00
-1.651651651651651731e+00 8.436322583167602529e-01
-1.647647647647647595e+00 7.825616689298595663e-01
-1.643643643643643681e+00 -9.684521103392064456e-02
-1.639639639639639768e+00 -3.773600833311432923e-01
-1.635635635635635632e+00 1.658910473978607358e+00
-1.631631631631631496e+00 9.962644476607579458e-01
-1.627627627627627582e+00 3.756031087899467935e-01
-1.623623623623623669e+00 4.377296800959275536e-01
-1.619619619619619755e+00 -1.552605841065246794e+00
-1.615615615615615619e+00 1.018547007648934910e+00
-1.611611611611611483e+00 -7.600807157409196491e-02
-1.607607607607607569e+00 2.426778172154711588e-01
-1.603603603603603656e+00 -2.237056673459941192e-01
-1.599599599599599742e+00 -2.126094499882229261e-02
-1.595595595595595606e+00 -7.350238872662308021e-01
-1.591591591591591470e+00 -5.709830841702331350e-01
-1.587587587587587556e+00 6.348687022466693586e-01
-1.583583583583583643e+00 -1.041425342549486599e+00
-1.579579579579579507e+00 -2.079070442041608055e-02
-1.575575575575575593e+00 -6.997090957203291328e-01
-1.571571571571571457e+00 3.956419214877825996e-01
-1.567567567567567544e+00 3.340996225997809876e-01
-1.563563563563563630e+00 -1.812782023129057229e+00
-1.559559559559559494e+00 1.712980500812442686e-01
-1.555555555555555580e+00 5.802845023566900462e-01
-1.551551551551551444e+00 -3.602374517171784696e-01
-1.547547547547547531e+00 2.557894086045822690e-01
-1.543543543543543617e+00 -3.793035084672771728e-02
-1.539539539539539481e+00 -9.223196140607409221e-01
-1.535535535535535567e+00 -9.547092602443281451e-02
-1.531531531531531432e+00 -8.995663891106128740e-02
-1.527527527527527518e+00 -6.785375248932892789e-02
-1.523523523523523604e+00 4.267997121343006794e-01
-1.519519519519519468e+00 -1.129267237379518174e-01
-1.515515515515515554e+00 5.673585666086689017e-01
-1.511511511511511419e+00 3.470032042435575725e-01
-1.507507507507507505e+00 -4.152435755795897410e-01
-1.503503503503503591e+00 1.985706208785633642e-01
-1.499499499499499455e+00 -1.645895193203238627e+00
-1.495495495495495542e+00 -7.424570528208158660e-01
-1.491491491491491406e+00 -3.858123200037669176e-01
-1.487487487487487492e+00 -1.786265205600427564e+00
-1.483483483483483578e+00 4.930747985759789676e-01
-1.479479479479479442e+00 5.608139551990060090e-01
-1.475475475475475529e+00 8.537218282593397323e-01
-1.471471471471471393e+00 1.063188846931257953e-01
-1.467467467467467479e+00 -1.014920172593839265e+00
-1.463463463463463565e+00 1.234171143107694490e+00
-1.459459459459459429e+00 5.923444721773387656e-01
-1.455455455455455516e+00 -8.316817736210764256e-01
-1.451451451451451380e+00 3.738903544766018078e-02
-1.447447447447447466e+00 -2.134873746762821212e-01
-1.443443443443443552e+00 -1.663974165107804382e-01
-1.439439439439439417e+00 1.055148417907384450e-01
-1.435435435435435281e+00 -4.813421427336809361e-02
-1.431431431431431367e+00 7.533461941479571711e-02
-1.427427427427427453e+00 8.425109431032759000e-01
-1.423423423423423539e+00 5.901893123313652068e-02
-1.419419419419419404e+00 1.346615285812869933e+00
-1.415415415415415268e+00 -9.039743609408321667e-01
-1.411411411411411354e+00 4.279663763273201804e-02
-1.407407407407407440e+00 -1.198711066938438208e+00
-1.403403403403403527e+00 2.817514138443066862e-01
-1.399399399399399391e+00 -3.026510795664993925e-01
-1.395395395395395255e+00 1.637362554717407326e+00
-1.391391391391391341e+00 -8.344157077720247839e-01
-1.387387387387387427e+00 6.963451763718627729e-01
-1.383383383383383514e+00 1.068325882654795889e+00
-1.379379379379379378e+00 1.629637320135150780e-01
-1.375375375375375242e+00 8.919381483214383621e-01
-1.371371371371371328e+00 -2.614043051211884482e-03
-1.367367367367367414e+00 -1.825759438655500388e-01
-1.363363363363363501e+00 2.003628130209077707e+00
-1.359359359359359365e+00 -5.561015608327312121e-01
-1.355355355355355229e+00 4.475511142877289794e-01
-1.351351351351351315e+00 -2.592731210434493505e+00
-1.347347347347347402e+00 3.407867493481190890e-01
-1.343343343343343488e+00 -4.058331514219440939e-01
-1.339339339339339352e+00 3.033545736449617114e-01
-1.335335335335335216e+00 1.238352754299587577e+00
-1.331331331331331302e+00 -8.950831255075231141e-01
-1.327327327327327389e+00 -1.019956069591721359e+00
-1.323323323323323475e+00 -3.675358623057294327e-01
-1.319319319319319339e+00 -8.876701213941071700e-01
-1.315315315315315203e+00 1.156302885582750628e+00
-1.311311311311311290e+00 -6.902590354058572020e-01
-1.307307307307307376e+00 -1.347642123577245332e+00
-1.303303303303303462e+00 -9.178077013612395696e-01
-1.299299299299299326e+00 -2.840918280777390281e-01
-1.295295295295295190e+00 -7.370329549197015551e-01
-1.291291291291291277e+00 2.361978976318952206e-01
-1.287287287287287363e+00 -8.019285294898617078e-01
-1.283283283283283449e+00 -2.663365091886979105e-02
-1.279279279279279313e+00 -1.212453207651820186e+00
-1.275275275275275177e+00 1.727561665659347323e-01
-1.271271271271271264e+00 2.422007797798836570e+00
-1.267267267267267350e+00 -9.431227523220272468e-01
-1.263263263263263214e+00 -8.820150692098998463e-03
-1.259259259259259300e+00 -9.469948727177677217e-01
-1.255255255255255165e+00 3.550924937930256542e-01
-1.251251251251251251e+00 1.899334611548737062e+00
-1.247247247247247337e+00 -5.001107332254289828e-01
-1.243243243243243201e+00 -3.139654527361903646e-01
-1.239239239239239287e+00 7.892807931925183151e-02
-1.235235235235235152e+00 -2.782677330381938194e-02
-1.231231231231231238e+00 1.430822564020676479e-01
-1.227227227227227324e+00 3.258155386022111299e-01
-1.223223223223223188e+00 -1.188907080776264280e+00
-1.219219219219219275e+00 -5.599709835523194457e-01
-1.215215215215215139e+00 -6.770526884265851697e-01
-1.211211211211211225e+00 2.252866791978153371e-01
-1.207207207207207311e+00 -3.545827694479061210e-01
-1.203203203203203175e+00 8.165019272396647487e-01
-1.199199199199199262e+00 8.567996062883047603e-01
-1.195195195195195126e+00 -1.762727843857458510e+00
-1.191191191191191212e+00 -1.166912143639161403e+00
-1.187187187187187298e+00 -2.757269707450444307e-01
-1.183183183183183163e+00 3.668959478077122860e-01
-1.179179179179179027e+00 2.432213649116222731e-01
-1.175175175175175113e+00 9.065570560842719505e-01
-1.171171171171171199e+00 1.701568145821525491e+00
-1.167167167167167285e+00 1.988057032455172068e+00
-1.163163163163163150e+00 2.376594607764133671e-01
-1.159159159159159014e+00 -5.608807366579131592e-01
-1.155155155155155100e+00 6.838482336330808931e-02
-1.151151151151151186e+00 -1.171211953161775399e-01
-1.147147147147147273e+00 1.679361837303551264e+00
-1.143143143143143137e+00 2.530601730293474905e+00
-1.139139139139139001e+00 7.026484065041824767e-01
-1.135135135135135087e+00 -1.481182760170296486e-01
-1.131131131131131173e+00 1.015177548086446224e+00
-1.127127127127127260e+00 1.881952063890002247e-02
-1.123123123123123124e+00 -1.840655935201174875e+00
-1.119119119119118988e+00 -3.481172205926295060e-01
-1.115115115115115074e+00 -1.414245833317572920e+00
-1.111111111111111160e+00 6.022225201487219071e-01
-1.107107107107107247e+00 -1.381510465380074715e+00
-1.103103103103103111e+00 -1.775019335120191943e+00
-1.099099099099098975e+00 1.053850435501601623e+00
-1.095095095095095061e+00 -1.187335173210087580e-01
-1.091091091091091148e+00 2.315939467575694466e-01
-1.087087087087087234e+00 1.741090068220456644e+00
-1.083083083083083098e+00 -1.526194616081077760e+00
-1.079079079079078962e+00 -2.029736406290685025e-01
-1.075075075075075048e+00 1.558258081063756517e+00
-1.071071071071071135e+00 1.286281827285698620e+00
-1.067067067067067221e+00 8.334319731308688084e-01
-1.063063063063063085e+00 -2.278719895996282885e-01
-1.059059059059058949e+00 -9.414647863020705332e-01
-1.055055055055055035e+00 5.592061888851224127e-01
-1.051051051051051122e+00 -4.956055332357001686e-01
-1.047047047047047208e+00 7.817255634243892581e-01
-1.043043043043043072e+00 -6.798987729465444385e-01
-1.039039039039038936e+00 1.257009214350155890e+00
-1.035035035035035023e+00 -4.009679674723922588e-02
-1.031031031031031109e+00 3.080495037722287832e-01
-1.027027027027027195e+00 -2.010787092777899687e+00
-1.023023023023023059e+00 2.936038551038652744e-01
-1.019019019019018923e+00 3.078705338791729584e-01
-1.015015015015015010e+00 -7.172147091451066547e-01
-1.011011011011011096e+00 1.276601531735141792e+00
-1.007007007007006960e+00 6.969165752279183890e-01
-1.003003003003003046e+00 -6.818897733763162883e-01
-9.989989989989989105e-01 -1.388555646679088706e+00
-9.949949949949949968e-01 -9.107179349421237746e-02
-9.909909909909910830e-01 -6.796017577714342783e-01
-9.869869869869869472e-01 1.449148155118810566e+00
-9.829829829829830334e-01 6.770425907438757385e-01
-9.789789789789788976e-01 -2.621987294558684733e-01
-9.749749749749749839e-01 6.352766943779519088e-03
-9.709709709709710701e-01 -6.786975166486193256e-01
-9.669669669669669343e-01 -1.722190198583624099e+00
-9.629629629629630205e-01 3.712394555450716505e-01
-9.589589589589588847e-01 8.311520751607164303e-01
-9.549549549549549710e-01 -2.140469288172328621e+00
-9.509509509509510572e-01 1.433355457738570093e+00
-9.469469469469469214e-01 8.519322403836916691e-02
-9.429429429429430076e-01 -1.360048179609082419e+00
-9.389389389389388718e-01 3.544965531418531324e-01
-9.349349349349349581e-01 -1.455279802740444328e+00
-9.309309309309310443e-01 -4.177739204372764581e-01
-9.269269269269269085e-01 -1.590385288719677437e+00
-9.229229229229229947e-01 -2.735700770780410962e-01
-9.189189189189188589e-01 4.826977221997004741e-01
-9.149149149149149451e-01 7.540598900859091236e-01
-9.109109109109110314e-01 9.850260988444119459e-01
-9.069069069069068956e-01 -1.782690609178143593e-01
-9.029029029029029818e-01 8.164203401508585145e-01
-8.988988988988988460e-01 -3.218323528240463749e-01
-8.948948948948949322e-01 2.923931182834342279e-01
-8.908908908908907964e-01 1.212914134569748947e+00
-8.868868868868868827e-01 -8.491519187950141712e-01
-8.828828828828829689e-01 -9.156909635175410900e-01
-8.788788788788788331e-01 5.895496017477040995e-01
-8.748748748748749193e-01 -7.248994973229451466e-02
-8.708708708708707835e-01 -1.281869096257186369e+00
-8.668668668668668698e-01 -8.848084225203567410e-01
-8.628628628628629560e-01 -1.397445327091770828e+00
-8.588588588588588202e-01 -1.427334248961680707e+00
-8.548548548548549064e-01 7.288250580304679316e-01
-8.508508508508507706e-01 -8.669765911049845952e-01
-8.468468468468468568e-01 -8.031445412631176284e-01
-8.428428428428429431e-01 -2.385527828393787242e-01
-8.388388388388388073e-01 1.295310015061686748e+00
-8.348348348348348935e-01 -1.579848505082509513e-01
-8.308308308308307577e-01 -1.259698635106943909e+00
-8.268268268268268439e-01 2.481156248915154183e+00
-8.228228228228229302e-01 -2.032782948123160738e-01
-8.188188188188187944e-01 2.535505332275834522e+00
-8.148148148148148806e-01 -2.323892235395633998e-01
-8.108108108108107448e-01 -1.911085944173017248e+00
-8.068068068068068310e-01 -6.769234324661285163e-01
-8.028028028028029173e-01 3.939514811480639978e-01
-7.987987987987987815e-01 5.872233116760899874e-02
-7.947947947947948677e-01 -4.123918085026320735e-01
-7.907907907907907319e-01 -8.162428989659253897e-01
-7.867867867867868181e-01 -1.126479773280749885e+00
-7.827827827827826823e-01 -1.573947069010024125e+00
-7.787787787787787686e-01 -1.818152089692117168e-01
-7.747747747747748548e-01 -3.071251847291121551e-01
-7.707707707707707190e-01 -4.494590832055320728e-01
-7.667667667667668052e-01 1.170812014734207374e+00
-7.627627627627626694e-01 2.012456117302843239e+00
-7.587587587587587556e-01 -1.236277307823721916e+00
-7.547547547547548419e-01 1.243525521235565590e+00
-7.507507507507507061e-01 -9.983746237196935436e-01
-7.467467467467467923e-01 1.355434336574384557e-01
-7.427427427427426565e-01 1.098267566551081043e+00
-7.387387387387387427e-01 -2.147897302650133011e-01
-7.347347347347348290e-01 -4.212009087837280119e-01
-7.307307307307306932e-01 6.506277168428298285e-01
-7.267267267267267794e-01 2.955819648486838203e-01
-7.227227227227226436e-01 3.180999236716670064e-01
-7.187187187187187298e-01 5.835991118119087107e-01
-7.147147147147148161e-01 -2.020991774403398278e+00
-7.107107107107106803e-01 -5.199777526635135372e-01
-7.067067067067067665e-01 -3.078934806171714639e-03
-7.027027027027026307e-01 -6.499874121399222826e-01
-6.986986986986987169e-01 -3.074053368496771910e-01
-6.946946946946948032e-01 1.157090544366934592e+00
-6.906906906906906674e-01 3.975553110932293355e-01
-6.866866866866867536e-01 -1.898309274979642636e-01
-6.826826826826826178e-01 1.195916546146916559e+00
-6.786786786786787040e-01 1.013031502766059688e+00
-6.746746746746747903e-01 1.487143722477629604e+00
-6.706706706706706544e-01 4.914898127141040796e-01
-6.666666666666667407e-01 -6.398042596247976999e-01
-6.626626626626626049e-01 -1.120633417831913725e+00
-6.586586586586586911e-01 -6.097631812533148565e-01
-6.546546546546547773e-01 1.836492802121284296e+00
-6.506506506506506415e-01 2.405713601396680668e-01
-6.466466466466467278e-01 1.958602998247602534e+00
-6.426426426426425920e-01 -1.451083258665147424e+00
-6.386386386386386782e-01 -1.132522257191376225e+00
-6.346346346346345424e-01 8.076796383644478938e-01
-6.306306306306306286e-01 -5.093180263799046426e-01
-6.266266266266267149e-01 8.931496395730450510e-01
-6.226226226226225791e-01 3.911170300548242329e-01
-6.186186186186186653e-01 6.638936897565576034e-01
-6.146146146146145295e-01 2.623025391715635424e-01
-6.106106106106106157e-01 8.237306490232570999e-01
-6.066066066066067020e-01 -8.160390709134486276e-01
-6.026026026026025662e-01 1.345076590233253711e-01
-5.985985985985986524e-01 3.912122658242137563e-01
-5.945945945945945166e-01 -5.477399887042726512e-01
-5.905905905905906028e-01 -2.828748372661528121e-01
-5.865865865865866891e-01 7.587756452811088570e-01
-5.825825825825825532e-01 5.670281543478786768e-01
-5.785785785785786395e-01 -1.477637648164524142e+00
-5.745745745745745037e-01 9.911975747995337427e-01
-5.705705705705705899e-01 -4.620608701698152299e-01
-5.665665665665666761e-01 -4.095422335705219408e-01
-5.625625625625625403e-01 1.563453404804754365e-01
-5.585585585585586266e-01 7.740583018605635690e-01
-5.545545545545544908e-01 -9.136558230593140317e-01
-5.505505505505505770e-01 -1.220219353561311726e+00
-5.465465465465466632e-01 -1.016129315792755783e+00
-5.425425425425425274e-01 -6.098792952302362069e-01
-5.385385385385386137e-01 1.210768168591110028e+00
-5.345345345345344779e-01 1.121018248965203856e+00
-5.305305305305305641e-01 -4.951655643762379877e-01
-5.265265265265264283e-01 8.940177285133562579e-01
-5.225225225225225145e-01 -2.280996088279605982e-01
-5.185185185185186008e-01 1.362021158056099468e+00
-5.145145145145144649e-01 2.306412642474664487e-01
-5.105105105105105512e-01 7.832474956288433265e-01
-5.065065065065064154e-01 -4.820973750630473953e-01
-5.025025025025025016e-01 2.380410594801216917e-01
-4.984984984984985878e-01 2.738413373381324289e-01
-4.944944944944944520e-01 -6.594891289838360482e-01
-4.904904904904905383e-01 -3.066801437142844394e-02
-4.864864864864864025e-01 -3.281175795695692732e-01
-4.824824824824824887e-01 3.594929068049381171e-01
-4.784784784784785749e-01 -1.263060359902966612e+00
-4.744744744744744391e-01 3.024499945654475774e-01
-4.704704704704705254e-01 -4.739798743376293921e-01
-4.664664664664663896e-01 5.913702701727927558e-01
-4.624624624624624758e-01 -4.656733912504555373e-01
-4.584584584584585620e-01 1.415993949776173620e-02
-4.544544544544544262e-01 -1.037943198346555240e+00
-4.504504504504505125e-01 -8.461225058409871380e-01
-4.464464464464463767e-01 7.623573677278652205e-01
-4.424424424424424629e-01 -2.393474633523197781e+00
-4.384384384384385491e-01 7.738447173627488462e-01
-4.344344344344344133e-01 1.650644466085276763e-01
-4.304304304304304996e-01 7.374426540575279576e-01
-4.264264264264263637e-01 -1.815928283079121019e+00
-4.224224224224224500e-01 -1.043584839869753089e-02
-4.184184184184185362e-01 1.427013704951460016e-01
-4.144144144144144004e-01 5.388150366579014250e-01
-4.104104104104104866e-01 -6.481564872825237300e-01
-4.064064064064063508e-01 2.785489483777853770e-01
-4.024024024024024371e-01 2.672725890751112221e+00
-3.983983983983985233e-01 -1.209715324837474376e-02
-3.943943943943943875e-01 3.977695549699832300e-01
-3.903903903903904737e-01 8.112900167694553355e-01
-3.863863863863863379e-01 6.936492775886827777e-01
-3.823823823823824242e-01 -1.490295930918962286e+00
-3.783783783783782884e-01 4.703578693482027284e-01
-3.743743743743743746e-01 7.146476297179922277e-01
-3.703703703703704608e-01 -1.305366777500360231e-01
-3.663663663663663250e-01 -7.856868788461313091e-01
-3.623623623623624113e-01 8.358237385512267137e-01
-3.583583583583582755e-01 7.629962999810415702e-01
-3.543543543543543617e-01 -5.614011253199473472e-01
-3.503503503503504479e-01 4.147615019624264487e-01
-3.463463463463463121e-01 1.812545693571339656e-01
-3.423423423423423984e-01 2.442243816789257949e-01
-3.383383383383382625e-01 -1.160578415584973877e+00
-3.343343343343343488e-01 -1.914130150882289161e-01
-3.303303303303304350e-01 1.943398212642233891e-01
-3.263263263263262992e-01 -2.378554245770981013e-01
-3.223223223223223854e-01 3.746085324703296582e-01
-3.183183183183182496e-01 -2.509242750662903365e-01
-3.143143143143143359e-01 -3.592309853088620497e-01
-3.103103103103104221e-01 1.019684347521826906e+00
-3.063063063063062863e-01 3.445546857611715974e-01
-3.023023023023023725e-01 -4.489088910808516908e-01
-2.982982982982982367e-01 -1.588098121182568434e-01
-2.942942942942943230e-01 -1.222845554044102112e+00
-2.902902902902904092e-01 7.414168718830210780e-01
-2.862862862862862734e-01 6.095091682073251471e-01
-2.822822822822823596e-01 5.388854147129103905e-02
-2.782782782782782238e-01 3.689061874108727213e-01
-2.742742742742743101e-01 1.501506324982172957e+00
-2.702702702702701743e-01 -4.584169899010073768e-01
-2.662662662662662605e-01 5.733993825079674034e-01
-2.622622622622623467e-01 9.265369982658692161e-01
-2.582582582582582109e-01 -7.098995872116170558e-01
-2.542542542542542972e-01 -1.276915824740891825e+00
-2.502502502502501613e-01 1.597374295222688811e-01
-2.462462462462462476e-01 2.242333903161379816e+00
-2.422422422422423338e-01 -8.328223061921949388e-02
-2.382382382382381980e-01 2.931826100460072082e-01
-2.342342342342342842e-01 -5.656316880226779364e-01
-2.302302302302301484e-01 -1.414633002012861906e+00
-2.262262262262262347e-01 6.964844587657151864e-01
-2.222222222222223209e-01 8.407372285156193836e-01
-2.182182182182181851e-01 -2.307420678847176720e+00
-2.142142142142142713e-01 -6.010441968932850321e-01
-2.102102102102101355e-01 4.863210176234966098e-01
-2.062062062062062218e-01 1.122558408304884070e+00
-2.022022022022023080e-01 8.711255568088389911e-02
-1.981981981981981722e-01 1.492303274270344593e+00
-1.941941941941942584e-01 -1.169762116405385077e+00
-1.901901901901901226e-01 -1.174050338602671273e+00
-1.861861861861862089e-01 -1.744418852669170183e+00
-1.821821821821822951e-01 -1.317119318587480492e-01
-1.781781781781781593e-01 3.831077926211267637e-01
-1.741741741741742455e-01 -3.289071912980493506e-01
-1.701701701701701097e-01 2.612302352969984476e+00
-1.661661661661661959e-01 -1.185369786986165019e+00
-1.621621621621622822e-01 -6.931882578277975826e-02
-1.581581581581581464e-01 -1.332691260472703254e+00
-1.541541541541542326e-01 -1.201584305746489445e+00
-1.501501501501500968e-01 7.427942135910192700e-01
-1.461461461461461830e-01 -1.298982356364175361e+00
-1.421421421421422693e-01 -1.607999252542767321e+00
-1.381381381381381335e-01 1.141450489216225606e+00
-1.341341341341342197e-01 -9.019351449319961134e-01
-1.301301301301300839e-01 1.033799448542780178e-02
-1.261261261261261701e-01 1.442292489030678332e-02
-1.221221221221220343e-01 -3.760039392713910300e-01
-1.181181181181181206e-01 -2.772166366590421704e-01
-1.141141141141142068e-01 -9.343893459212497810e-01
-1.101101101101100710e-01 2.021365553686924166e+00
-1.061061061061061572e-01 8.364266348327181744e-01
-1.021021021021020214e-01 1.793106579537771528e-01
-9.809809809809810766e-02 1.051705646824004914e+00
-9.409409409409419389e-02 1.755418159143705970e-01
-9.009009009009005808e-02 -6.623854605947667729e-01
-8.608608608608614432e-02 8.463752515437552582e-01
-8.208208208208200851e-02 2.843321727324960024e-01
-7.807807807807809475e-02 4.695627728705589754e-01
-7.407407407407418098e-02 -5.553323702676947748e-01
-7.007007007007004518e-02 2.845314230020344892e-01
-6.606606606606613141e-02 2.397554350555741287e+00
-6.206206206206199560e-02 -4.433020871230047844e-01
-5.805805805805808184e-02 1.492948251611604382e-01
-5.405405405405416808e-02 2.996848323085178345e-01
-5.005005005005003227e-02 1.033798926648896055e+00
-4.604604604604611851e-02 -9.943861346213619390e-01
-4.204204204204198270e-02 1.254849459468115880e-02
-3.803803803803806893e-02 -5.981557835078015195e-01
-3.403403403403415517e-02 8.214357504765213980e-01
-3.003003003003001936e-02 -1.971996500848376410e+00
-2.602602602602610560e-02 1.946523864218448474e-01
-2.202202202202196979e-02 -2.850863010894723715e+00
-1.801801801801805603e-02 2.044781486009021876e-01
-1.401401401401392022e-02 -1.357886360738430609e+00
-1.001001001001000645e-02 -1.475691843920323265e+00
-6.006006006006092690e-03 1.073889909159973510e-01
-2.002002002001956882e-03 -1.152035144868518435e+00
2.002002002002178926e-03 3.224578623608167494e-01
6.006006006006092690e-03 -1.318361199202635392e+00
1.001001001001000645e-02 3.815212840796294302e-01
1.401401401401392022e-02 -1.761140365979873890e+00
1.801801801801783398e-02 -2.969855253785399496e-01
2.202202202202219183e-02 2.081429673348991205e+00
2.602602602602610560e-02 1.146701625374881850e+00
3.003003003003001936e-02 5.826584528071000468e-01
3.403403403403393312e-02 2.382730864236199952e+00
3.803803803803784689e-02 8.733864608488510761e-01
4.204204204204220474e-02 1.405251735249750666e+00
4.604604604604611851e-02 -1.259210817608763522e-01
5.005005005005003227e-02 9.264433469477566518e-01
5.405405405405394603e-02 1.714354685101459053e+00
5.805805805805785980e-02 9.765819867179963421e-01
6.206206206206221765e-02 1.013555440104062288e+00
6.606606606606613141e-02 3.348080601109304499e-03
7.007007007007004518e-02 1.363165797200045493e-01
7.407407407407395894e-02 7.745020136394865640e-01
7.807807807807787270e-02 6.368346606245970376e-01
8.208208208208223056e-02 7.969745073726146600e-01
8.608608608608614432e-02 -2.109603561293110552e+00
9.009009009009005808e-02 -2.308894633065817104e+00
9.409409409409397185e-02 4.388652638903354775e-01
9.809809809809788561e-02 5.943622661086900294e-02
1.021021021021022435e-01 -3.751327809995497753e-01
1.061061061061061572e-01 1.208073475983465928e+00
1.101101101101100710e-01 4.229431547457224161e-01
1.141141141141139848e-01 2.491276252340673958e-01
1.181181181181178985e-01 9.461346228522368174e-01
1.221221221221222564e-01 -6.815934163558154957e-01
1.261261261261261701e-01 -4.898574289821734373e-01
1.301301301301300839e-01 5.493289606157681915e-01
1.341341341341339977e-01 1.095477410996629208e-01
1.381381381381379114e-01 5.831181941064251806e-01
1.421421421421422693e-01 9.842553407102202501e-01
1.461461461461461830e-01 -3.898016993980915057e-01
1.501501501501500968e-01 -1.046118970113285584e+00
1.541541541541540106e-01 -1.256003375189667537e+00
1.581581581581579243e-01 2.673252516341225959e+00
1.621621621621622822e-01 1.165082387487392790e+00
1.661661661661661959e-01 2.075888408080754033e+00
1.701701701701701097e-01 -9.985242061597591201e-01
1.741741741741740235e-01 9.307037457418749771e-01
1.781781781781779372e-01 1.746630868417392346e+00
1.821821821821822951e-01 1.899752505537965153e+00
1.861861861861862089e-01 1.994441476496542354e+00
1.901901901901901226e-01 1.962003946922077580e+00
1.941941941941940364e-01 1.352803593873115329e+00
1.981981981981983942e-01 2.168845589785621364e+00
2.022022022022023080e-01 1.847670789011834680e+00
2.062062062062062218e-01 -1.979610720507360533e+00
2.102102102102101355e-01 6.432293468987313467e-01
2.142142142142140493e-01 1.008309233475953359e+00
2.182182182182184071e-01 3.593290291239839007e-01
2.222222222222223209e-01 -1.128530339027407736e+00
2.262262262262262347e-01 6.046325919688507744e-01
2.302302302302301484e-01 -6.642054876647724981e-01
2.342342342342340622e-01 4.042253438378525798e-01
2.382382382382384201e-01 4.197953161703523728e-01
2.422422422422423338e-01 -5.037446107934850925e-02
2.462462462462462476e-01 -2.109338013630774444e+00
2.502502502502501613e-01 -8.582215300540103620e-01
2.542542542542540751e-01 -1.424025178223291999e+00
2.582582582582584330e-01 1.725121177564227226e-01
2.622622622622623467e-01 4.868033806533418328e-01
2.662662662662662605e-01 -1.847980442369495657e-01
2.702702702702701743e-01 -7.593163216233900226e-01
2.742742742742740880e-01 -5.337109648634436043e-02
2.782782782782784459e-01 -9.965398489071224386e-01
2.822822822822823596e-01 -1.560801973787185881e+00
2.862862862862862734e-01 -4.700934817287778789e-02
2.902902902902901872e-01 2.102438373191130694e+00
2.942942942942941009e-01 -4.002618508059220259e-01
2.982982982982984588e-01 6.969309016115499134e-01
3.023023023023023725e-01 -2.204677714533656019e-01
3.063063063063062863e-01 -1.094249825145212629e-01
3.103103103103102001e-01 7.679861867380416429e-01
3.143143143143141138e-01 1.655136756261524900e+00
3.183183183183184717e-01 1.293472231809869033e+00
3.223223223223223854e-01 7.402593112681015164e-01
3.263263263263262992e-01 2.262631486254706559e+00
3.303303303303302130e-01 2.323012339335200238e+00
3.343343343343341267e-01 -9.736564921715301635e-01
3.383383383383384846e-01 1.879681861001714527e+00
3.423423423423423984e-01 1.798013260767648003e+00
3.463463463463463121e-01 1.418772629654846407e+00
3.503503503503502259e-01 5.294763932840873544e-01
3.543543543543541396e-01 1.467898636534733070e+00
3.583583583583584975e-01 8.008234189966267902e-02
3.623623623623624113e-01 1.015622675605333036e+00
3.663663663663663250e-01 1.931494519294262024e-01
3.703703703703702388e-01 3.871861611081368615e-01
3.743743743743741526e-01 1.617676710486029901e+00
3.783783783783785104e-01 -2.939685706001854637e+00
3.823823823823824242e-01 -1.346812595363109932e-01
3.863863863863863379e-01 -6.682718373938612011e-01
3.903903903903902517e-01 8.511091654667845008e-01
3.943943943943941655e-01 7.361941890810892453e-01
3.983983983983985233e-01 -4.382559999310419174e-01
4.024024024024024371e-01 -4.571344901422903506e-01
4.064064064064063508e-01 1.325493070930346406e-01
4.104104104104102646e-01 -4.570909027491448784e-01
4.144144144144141784e-01 2.009028713687993628e-01
4.184184184184185362e-01 -1.908835074335792470e+00
4.224224224224224500e-01 1.875334601973055459e-01
4.264264264264263637e-01 2.068664284976955425e+00
4.304304304304302775e-01 -3.716922148619646316e-01
4.344344344344346354e-01 -1.644790419818151106e+00
4.384384384384385491e-01 1.163579534215752664e+00
4.424424424424424629e-01 -5.819225864913286639e-01
4.464464464464463767e-01 7.925833210090049707e-01
4.504504504504502904e-01 -1.059634640694768093e+00
4.544544544544546483e-01 -8.663683199072738095e-01
4.584584584584585620e-01 9.831308487229382109e-01
4.624624624624624758e-01 9.508597111618404263e-01
4.664664664664663896e-01 -1.637098764788362137e+00
4.704704704704703033e-01 6.384676420047857848e-01
4.744744744744746612e-01 4.395415614104254964e-01
4.784784784784785749e-01 -5.566727204021141295e-01
4.824824824824824887e-01 -9.106688173383927776e-01
4.864864864864864025e-01 1.539800340096555420e-01
4.904904904904903162e-01 2.529227086220489529e+00
4.944944944944946741e-01 -1.281192915930158938e+00
4.984984984984985878e-01 1.196249607627353218e-01
5.025025025025025016e-01 5.460557438213683445e-01
5.065065065065064154e-01 1.007028433843672577e+00
5.105105105105103291e-01 2.439646013746914921e+00
5.145145145145146870e-01 3.418854125931950483e-01
5.185185185185186008e-01 -1.691805415363215381e+00
5.225225225225225145e-01 -2.925045372925229037e-01
5.265265265265264283e-01 7.376384403498664755e-03
5.305305305305303420e-01 -5.382855831115702649e-01
5.345345345345346999e-01 1.123920647064519662e-01
5.385385385385386137e-01 -1.884633254806970415e+00
5.425425425425425274e-01 -1.148650288823721555e+00
5.465465465465464412e-01 7.665489699708847304e-01
5.505505505505503550e-01 3.485581455642489113e-01
5.545545545545547128e-01 -4.563818159214830805e-01
5.585585585585586266e-01 -1.599953519379031297e+00
5.625625625625625403e-01 -3.112426193766635318e-01
5.665665665665664541e-01 -4.282831583761992356e-01
5.705705705705703679e-01 -7.230902384592483578e-01
5.745745745745747257e-01 -1.019102796139337075e+00
5.785785785785786395e-01 4.994353264998382946e-01
5.825825825825825532e-01 -4.839091389959465084e-01
5.865865865865864670e-01 1.203620039939659936e+00
5.905905905905903808e-01 -1.578247120307874618e-01
5.945945945945947386e-01 -2.360300871400381750e-01
5.985985985985986524e-01 1.358477897053897709e-01
6.026026026026025662e-01 1.492284141745318982e+00
6.066066066066064799e-01 3.712356934430128819e-01
6.106106106106103937e-01 -1.234257633792628539e+00
6.146146146146147515e-01 1.860194519835820293e+00
6.186186186186186653e-01 1.260244942492233733e+00
6.226226226226225791e-01 1.464841987637661491e+00
6.266266266266264928e-01 -7.534883491776256381e-02
6.306306306306304066e-01 -9.666749180356261073e-01
6.346346346346347644e-01 -1.807245117429282788e-01
6.386386386386386782e-01 -1.144785087780070265e+00
6.426426426426425920e-01 8.038160480174270095e-01
6.466466466466465057e-01 1.697027424816276442e+00
6.506506506506504195e-01 -4.969420318561878491e-01
6.546546546546547773e-01 1.166924527348527363e-01
6.586586586586586911e-01 -5.302445423085253573e-01
6.626626626626626049e-01 1.435428899329471486e+00
6.666666666666665186e-01 -6.828255246730269290e-01
6.706706706706704324e-01 2.449014558852980472e-01
6.746746746746747903e-01 1.045299824545796064e+00
6.786786786786787040e-01 6.812419902795092685e-01
6.826826826826826178e-01 2.276805830905211381e-01
6.866866866866865315e-01 -8.876405560467520717e-01
6.906906906906904453e-01 -5.271963245356138250e-01
6.946946946946948032e-01 1.162360581748079699e-02
6.986986986986987169e-01 -4.823083889910422251e-01
7.027027027027026307e-01 1.206891372332493662e+00
7.067067067067065445e-01 -1.364803696913851616e-01
7.107107107107109023e-01 4.597498227312213359e-01
7.147147147147148161e-01 1.699629213232855207e+00
7.187187187187187298e-01 3.365428306762057731e-01
7.227227227227226436e-01 1.715682213244213716e-01
7.267267267267265574e-01 -1.151084434740219653e-01
7.307307307307309152e-01 1.667781767247849434e+00
7.347347347347348290e-01 1.411345900620036176e+00
7.387387387387387427e-01 1.559757919245955193e+00
7.427427427427426565e-01 2.155052245042851755e+00
7.467467467467465703e-01 2.483498766830259274e+00
7.507507507507509281e-01 -1.435248051287936200e+00
7.547547547547548419e-01 -2.658626886119107580e-01
7.587587587587587556e-01 -1.744977497720235915e+00
7.627627627627626694e-01 -1.458215418556888743e+00
7.667667667667665832e-01 8.673788636931308860e-01
7.707707707707709410e-01 6.960447689866828824e-01
7.747747747747748548e-01 -1.002499522069590032e+00
7.787787787787787686e-01 4.735420731404417771e-01
7.827827827827826823e-01 -2.884865164256353309e-01
7.867867867867865961e-01 -2.745083672462124702e-01
7.907907907907909539e-01 3.390509325446144917e-01
7.947947947947948677e-01 1.463194485618463325e+00
7.987987987987987815e-01 -8.613069503899498658e-01
8.028028028028026952e-01 -1.432930279593207512e+00
8.068068068068066090e-01 -6.855605448418382597e-01
8.108108108108109668e-01 2.511900069061301366e+00
8.148148148148148806e-01 7.853413315113354498e-01
8.188188188188187944e-01 5.478338092148202776e-01
8.228228228228227081e-01 4.370035995054653566e-01
8.268268268268266219e-01 -7.748062979635343961e-01
8.308308308308309797e-01 -1.803210397960965106e-01
8.348348348348348935e-01 -1.393076164354799529e+00
8.388388388388388073e-01 1.254428201202100412e+00
8.428428428428427210e-01 -6.684331648588474062e-01
8.468468468468466348e-01 -6.759060396951575844e-02
8.508508508508509927e-01 -1.817469584483068390e+00
8.548548548548549064e-01 -1.576043059173031002e+00
8.588588588588588202e-01 3.576232206353898713e-01
8.628628628628627339e-01 -2.767411447850106065e-01
8.668668668668666477e-01 -1.431273001679039591e+00
8.708708708708710056e-01 -3.747246976860120204e-01
8.748748748748749193e-01 -5.670689805099303760e-01
8.788788788788788331e-01 3.820058129550978343e-01
8.828828828828827469e-01 1.087667700712364072e+00
8.868868868868866606e-01 -2.086524907271012808e+00
8.908908908908910185e-01 3.806317905835618354e-01
8.948948948948949322e-01 -4.779886491517796321e-01
8.988988988988988460e-01 -1.573504986855725485e-01
9.029029029029027598e-01 2.587856212692343671e+00
9.069069069069066735e-01 5.566657993065499133e-01
9.109109109109110314e-01 -1.692400749674560112e+00
9.149149149149149451e-01 -9.320032118681347288e-01
9.189189189189188589e-01 -1.441228450012778550e+00
9.229229229229227727e-01 -7.720899649583964353e-01
9.269269269269266864e-01 -8.200070095258982228e-01
9.309309309309310443e-01 -6.722758075308608028e-01
9.349349349349349581e-01 2.338058181090050258e+00
9.389389389389388718e-01 8.852485545912384124e-01
9.429429429429427856e-01 -9.067280599151039677e-01
9.469469469469471434e-01 -5.391872992458420777e-01
9.509509509509510572e-01 -4.689487312918271256e-01
9.549549549549549710e-01 -2.781326437257174877e+00
9.589589589589588847e-01 6.973007119846290625e-01
9.629629629629627985e-01 1.204276891348208034e+00
9.669669669669671563e-01 -2.817543530409356567e+00
9.709709709709710701e-01 -1.581128127842220232e+00
9.749749749749749839e-01 5.941516679424455605e-01
9.789789789789788976e-01 -1.313427216494049254e+00
9.829829829829828114e-01 -1.214312406957472001e+00
9.869869869869871692e-01 1.697656560811557913e+00
9.909909909909910830e-01 4.260196409280673779e-01
9.949949949949949968e-01 2.993201780332380713e-01
9.989989989989989105e-01 6.374081489250673638e-01
1.003003003003002824e+00 1.796507968651366083e+00
1.007007007007007182e+00 -9.489911477440826637e-02
1.011011011011011096e+00 -1.783586357195501015e-01
1.015015015015015010e+00 -1.209174425016895649e+00
1.019019019019018923e+00 2.993514794924695965e-01
1.023023023023022837e+00 -4.578831619216870985e-01
1.027027027027027195e+00 1.057397851672302186e-01
1.031031031031031109e+00 7.747254482650699492e-01
1.035035035035035023e+00 -1.550203175522964161e+00
1.039039039039038936e+00 7.274996910784492510e-01
1.043043043043042850e+00 -5.751977464798464501e-01
1.047047047047047208e+00 2.093387663094862794e-01
1.051051051051051122e+00 1.532172523318956703e+00
1.055055055055055035e+00 4.166738330580502803e-01
1.059059059059058949e+00 -4.209171535413723797e-01
1.063063063063062863e+00 -6.449909636073254404e-01
1.067067067067067221e+00 -1.753495430465947136e+00
1.071071071071071135e+00 6.127564585130820252e-01
1.075075075075075048e+00 2.303096915186730875e-01
1.079079079079078962e+00 -1.311383197506816589e-01
1.083083083083082876e+00 2.261911097261121384e+00
1.087087087087087234e+00 -1.368406841534627327e+00
1.091091091091091148e+00 -1.546698968969547894e-01
1.095095095095095061e+00 -3.268457114367591676e-01
1.099099099099098975e+00 4.399480590808777514e-01
1.103103103103102889e+00 6.817606459612378655e-01
1.107107107107107247e+00 -1.729495871409610919e-01
1.111111111111111160e+00 9.212173896284965302e-01
1.115115115115115074e+00 1.631255363376648670e+00
1.119119119119118988e+00 1.534932505750406406e+00
1.123123123123122902e+00 6.443594628195722374e-01
1.127127127127127260e+00 -1.035194643836435446e+00
1.131131131131131173e+00 5.151977383394121812e-01
1.135135135135135087e+00 -1.097128218447736892e+00
1.139139139139139001e+00 1.691602981862665445e+00
1.143143143143142915e+00 -1.136453461488867028e-01
1.147147147147147273e+00 1.332185058357474139e+00
1.151151151151151186e+00 3.851769492815766416e-01
1.155155155155155100e+00 5.986248854111001494e-01
1.159159159159159014e+00 -2.431891617417746010e-01
1.163163163163162928e+00 1.948345718193140730e+00
1.167167167167167285e+00 6.082998113903069770e-01
1.171171171171171199e+00 1.661360966689406693e+00
1.175175175175175113e+00 -2.886350127242587327e+00
1.179179179179179027e+00 1.000075025086210712e+00
1.183183183183182940e+00 1.840879027803722146e+00
1.187187187187187298e+00 -7.432751975739452233e-01
1.191191191191191212e+00 8.000614846823156379e-01
1.195195195195195126e+00 -4.805803143443891923e-01
1.199199199199199040e+00 2.503943526546379417e+00
1.203203203203202953e+00 9.648744530252932883e-01
1.207207207207207311e+00 -9.266777074626041388e-01
1.211211211211211225e+00 -6.115876227328995718e-01
1.215215215215215139e+00 -2.156876267771979716e+00
1.219219219219219053e+00 -1.623057324089966613e+00
1.223223223223223410e+00 1.240187083098130083e+00
1.227227227227227324e+00 3.352287723553116217e-01
1.231231231231231238e+00 9.373912029274095170e-01
1.235235235235235152e+00 1.585636937058233220e-01
1.239239239239239065e+00 -2.183802675158852846e+00
1.243243243243243423e+00 -3.690647881803927333e-01
1.247247247247247337e+00 -1.167660557674203403e+00
1.251251251251251251e+00 -9.394362934702555901e-01
1.255255255255255165e+00 3.581175905968112527e-01
1.259259259259259078e+00 -5.103328680465024636e-01
1.263263263263263436e+00 4.343911593298771523e-01
1.267267267267267350e+00 4.284005957500774953e-01
1.271271271271271264e+00 1.349478669474583947e+00
1.275275275275275177e+00 -2.279754376922618064e+00
1.279279279279279091e+00 -1.099413514468894626e-01
1.283283283283283449e+00 7.838040944565284607e-03
1.287287287287287363e+00 3.936734880615260779e-01
1.291291291291291277e+00 -8.644376068678699676e-01
1.295295295295295190e+00 2.453593983711588877e-01
1.299299299299299104e+00 -3.041756291416382596e-01
1.303303303303303462e+00 -4.307835327086247945e-01
1.307307307307307376e+00 1.953853541695007356e+00
1.311311311311311290e+00 1.938663749645627155e+00
1.315315315315315203e+00 -1.951855096473105178e+00
1.319319319319319117e+00 -1.466576800929253910e+00
1.323323323323323475e+00 5.217261511329721602e-01
1.327327327327327389e+00 7.197115297174786486e-01
1.331331331331331302e+00 -1.156096929218543679e+00
1.335335335335335216e+00 1.183770201363784080e+00
1.339339339339339130e+00 -1.508610796266536547e-01
1.343343343343343488e+00 -8.400963118032499233e-02
1.347347347347347402e+00 1.950973929984729446e-02
1.351351351351351315e+00 2.081872701363142397e+00
1.355355355355355229e+00 1.392551507074286099e-01
1.359359359359359143e+00 -1.282938611216709379e+00
1.363363363363363501e+00 8.739169882154019797e-01
1.367367367367367414e+00 -9.363324135101718237e-01
1.371371371371371328e+00 9.378767115365195250e-01
1.375375375375375242e+00 -1.190463029440546050e+00
1.379379379379379156e+00 4.860979413229835067e-01
1.383383383383383514e+00 -5.389836744254463685e-01
1.387387387387387427e+00 -9.583999812453340983e-01
1.391391391391391341e+00 1.455031245289266417e+00
1.395395395395395255e+00 -2.154054525427359312e+00
1.399399399399399169e+00 2.038509968781332393e+00
1.403403403403403527e+00 -1.333783557455771485e+00
1.407407407407407440e+00 1.200743064944062910e+00
1.411411411411411354e+00 -8.666167531405595259e-01
1.415415415415415268e+00 7.410907683427077064e-01
1.419419419419419182e+00 2.576865245113058034e-01
1.423423423423423539e+00 2.336749623998684466e+00
1.427427427427427453e+00 -8.097292025414780658e-01
1.431431431431431367e+00 -4.010497647485978812e-01
1.435435435435435281e+00 -5.628801684973538944e-01
1.439439439439439195e+00 -4.107659992476563326e-01
1.443443443443443552e+00 -9.827880008301299597e-01
1.447447447447447466e+00 7.705271858443282773e-02
1.451451451451451380e+00 -3.049412311810365761e+00
1.455455455455455294e+00 1.255314090821069817e+00
1.459459459459459651e+00 4.539894038625030825e-01
1.463463463463463565e+00 -1.753865021237913102e-01
1.467467467467467479e+00 1.413316205864196373e+00
1.471471471471471393e+00 -6.365224406674941937e-01
1.475475475475475307e+00 2.334997198995982348e+00
1.479479479479479664e+00 -6.706538306831179019e-01
1.483483483483483578e+00 -1.072547867266928634e-01
1.487487487487487492e+00 2.154298262962588861e+00
1.491491491491491406e+00 1.014643288375320473e+00
1.495495495495495319e+00 -1.554498981633383625e+00
1.499499499499499677e+00 -8.209452885168078140e-01
1.503503503503503591e+00 -3.164712622614259119e-01
1.507507507507507505e+00 2.100860389207778040e-02
1.511511511511511419e+00 -3.549610474256931214e-01
1.515515515515515332e+00 -1.714548648140725495e+00
1.519519519519519690e+00 1.694849897317346255e+00
1.523523523523523604e+00 -2.191039925914462838e+00
1.527527527527527518e+00 -1.342417970002949545e-01
1.531531531531531432e+00 1.839069720542778619e-01
1.535535535535535345e+00 1.059407791174164171e+00
1.539539539539539703e+00 -8.958319592748533733e-01
1.543543543543543617e+00 -2.876371934574227171e-02
1.547547547547547531e+00 -2.643821265844092050e+00
1.551551551551551444e+00 2.915120515819353830e-01
1.555555555555555358e+00 5.173959513065080618e-01
1.559559559559559716e+00 9.400059282880348643e-01
1.563563563563563630e+00 -8.063471788415504937e-01
1.567567567567567544e+00 2.503992505755334719e-01
1.571571571571571457e+00 -1.338740777174235230e+00
1.575575575575575371e+00 -2.686923771600995270e-01
1.579579579579579729e+00 -1.426165013165521911e+00
1.583583583583583643e+00 -1.688229784892244068e+00
1.587587587587587556e+00 4.539130078895026177e-01
1.591591591591591470e+00 1.209156405889476871e-01
1.595595595595595384e+00 2.881154704908956976e-01
1.599599599599599742e+00 4.783110615451946490e-01
1.603603603603603656e+00 1.799962557756117632e-01
1.607607607607607569e+00 -3.034534868436366550e-01
1.611611611611611483e+00 5.927277670511152396e-02
1.615615615615615397e+00 2.791275038075093917e-01
1.619619619619619755e+00 1.344282606714784389e+00
1.623623623623623669e+00 1.983564642752314144e+00
1.627627627627627582e+00 -6.546197434448866037e-01
1.631631631631631496e+00 -4.711837138367227507e-01
1.635635635635635410e+00 -5.180387565155647467e-02
1.639639639639639768e+00 -2.173130632617336300e+00
1.643643643643643681e+00 -6.041115107411764162e-01
1.647647647647647595e+00 1.905660621803495214e-01
1.651651651651651509e+00 3.449321000349458433e-01
1.655655655655655423e+00 7.940430298879845861e-01
1.659659659659659781e+00 -1.636856833352730245e+00
1.663663663663663694e+00 -1.046067179843718442e+00
1.667667667667667608e+00 -1.423298304159875682e+00
1.671671671671671522e+00 8.462646739562058595e-01
1.675675675675675436e+00 -5.418274967026401878e-01
1.679679679679679793e+00 4.470007139001991869e-01
1.683683683683683707e+00 -1.229887859585151233e+00
1.687687687687687621e+00 3.702949812267914420e-01
1.691691691691691535e+00 1.021272233649695854e-01
1.695695695695695449e+00 1.316528739246367818e+00
1.699699699699699806e+00 -2.766228905533371307e+00
1.703703703703703720e+00 3.360089928171325346e-01
1.707707707707707634e+00 -9.161069052746304564e-01
1.711711711711711548e+00 -2.312873845427162733e-01
1.715715715715715461e+00 1.644255617682182091e-01
1.719719719719719819e+00 1.744508176723678639e-01
1.723723723723723733e+00 2.359663440530818390e-01
1.727727727727727647e+00 -9.487858036260354844e-02
1.731731731731731561e+00 -4.033347756776179405e-01
1.735735735735735918e+00 -2.099756065844915032e+00
1.739739739739739832e+00 1.063384516427677839e+00
1.743743743743743746e+00 6.376208780713373825e-01
1.747747747747747660e+00 2.228619017902187416e+00
1.751751751751751573e+00 -4.380166650682159601e-01
1.755755755755755931e+00 8.112707002241987819e-01
1.759759759759759845e+00 2.619128091599651764e-01
1.763763763763763759e+00 -8.720321977900828969e-01
1.767767767767767673e+00 -1.733587448810804066e+00
1.771771771771771586e+00 6.497393124665499231e-01
1.775775775775775944e+00 1.158201038470095590e+00
1.779779779779779858e+00 6.532236737780694469e-01
1.783783783783783772e+00 6.230394757714564635e-01
1.787787787787787686e+00 -1.234954421292549176e+00
1.791791791791791599e+00 -1.438427612873865780e+00
1.795795795795795957e+00 -1.287080528399149104e+00
1.799799799799799871e+00 -9.029670494366023314e-01
1.803803803803803785e+00 -8.243581502723371091e-02
1.807807807807807698e+00 1.229611364385303940e+00
1.811811811811811612e+00 -1.767078405993682821e+00
1.815815815815815970e+00 4.269052535274845406e-01
1.819819819819819884e+00 -1.145029233064184471e+00
1.823823823823823798e+00 -9.755501853311153715e-01
1.827827827827827711e+00 -4.311838606565938647e-01
1.831831831831831625e+00 6.808595495978390089e-01
1.835835835835835983e+00 1.199854951029428074e+00
1.839839839839839897e+00 5.002932139542117795e-01
1.843843843843843811e+00 -8.763947560291913685e-01
1.847847847847847724e+00 -1.128317837105624832e+00
1.851851851851851638e+00 1.102792996022634142e+00
1.855855855855855996e+00 3.077564819002290841e-01
1.859859859859859910e+00 -1.161283307230662087e+00
1.863863863863863823e+00 -7.853607120439712319e-02
1.867867867867867737e+00 -2.480805455839101004e-01
1.871871871871871651e+00 3.528524636272989401e-01
1.875875875875876009e+00 5.042042445282471919e-01
1.879879879879879923e+00 -1.652192789613227686e-01
1.883883883883883836e+00 1.489140147724775876e+00
1.887887887887887750e+00 -8.466453806116116532e-01
1.891891891891891664e+00 1.229866275836292377e+00
1.895895895895896022e+00 -2.143474827375482672e+00
1.899899899899899935e+00 -1.405945694100783294e+00
1.903903903903903849e+00 -2.248089184263236118e-01
1.907907907907907763e+00 3.071490791779921681e-01
1.911911911911911677e+00 5.529221113112129382e-01
1.915915915915916035e+00 2.456503336541122733e-03
1.919919919919919948e+00 -1.540977187188040443e+00
1.923923923923923862e+00 4.017792466276374208e-01
1.927927927927927776e+00 5.443445044770065661e-02
1.931931931931931690e+00 1.412096198101920885e+00
1.935935935935936048e+00 4.754494306650636770e-01
1.939939939939939961e+00 -6.782282906824697866e-02
1.943943943943943875e+00 -4.342846585103228296e-01
1.947947947947947789e+00 4.335957254925662703e-03
1.951951951951951703e+00 9.451654499513424401e-01
1.955955955955956060e+00 1.418547300467589256e+00
1.959959959959959974e+00 -1.012833629165136751e+00
1.963963963963963888e+00 -1.012595561171104386e+00
1.967967967967967802e+00 -1.454374548170364934e+00
1.971971971971972160e+00 8.910833159486866717e-02
1.975975975975976073e+00 4.975436995863088407e-01
1.979979979979979987e+00 1.172506189000795729e+00
1.983983983983983901e+00 7.257358070953330298e-01
1.987987987987987815e+00 1.767537449193320231e+00
1.991991991991992172e+00 -3.712571664726003751e-01
1.995995995995996086e+00 -2.601984109861028571e-01
2.000000000000000000e+00 -3.166443328677349955e-02
